/* demo_data json for testing */
{
  "total":200,
  "per_page":15,
  "current_page":1,
  "last_page":14,
  "next_page_url":"https:\/\/vuetable.ratiw.net\/api\/users?page=2",
  "prev_page_url":null,
  "from":1,
  "to":15,
  "data":[
    {"club":"liverpool", "win":5, "draw": 1,"lose":1, "p_n":1, "pts": 16},
    {"club":"ManCity", "win":7, "draw": 0,"lose":0, "p_n":1, "pts": 21}
  ]
}
